{  
  "name":"unsecureMqttBroker",
  "brokerName":"default",
  "ip":"127.0.0.1:1883"
},
{  
  "name":"messagingPrinter",
  "topic":"default/#"
},
{  
  "name":"cloudPusher",
  "baseUrl":"http://localhost:8080",
  "topic":"default/cloud"
},
{  
  "name":"messagingSend",
  "topic":"default/cloud/default/test/toPush",
  "payload":"550e8400-e29b-41d4-a716-446655440000"
},
{  
  "name":"messagingSend",
  "topic":"default/test/toPush/model",
  "payload":"{\"name\":\"virtual test sensor\"}"
},
{  
  "name":"messagingSend",
  "topic":"default/test/toPush/data",
  "payload":"{\"t\":1234567890, \"temp\":36.8}"
},
{  
  "name":"messagingSend",
  "topic":"default/test/toPush/data",
  "payload":"{\"t\":1234567891, \"temp\":37.8}"
},
{  
  "name":"messagingSend",
  "topic":"default/test/toPush/data",
  "payload":"{\"t\":1234567892, \"temp\":38.8}"
},
